{
      "checkbox": [{
        "key": "fault",
        "label": "Fault/Crash",
        "required": false,
        "order": 1,
        "controlType": "checkbox",
        "type": "checkbox"
      },
      {
        "key": "networking",
        "label": "Networking",
        "required": false,
        "order": 1,
        "controlType": "checkbox",
        "type": "checkbox"
      },
      {
        "key": "horizon",
        "label": "Horizon Air",
        "required": false,
        "order": 1,
        "controlType": "checkbox",
        "type": "checkbox"
      },
      {
        "key": "vcloud",
        "label": "vCloud Air",
        "required": false,
        "order": 1,
        "controlType": "checkbox",
        "type": "checkbox"
      },
      {
        "key": "vmwarecloud",
        "label": "VMware Cloud Services",
        "required": false,
        "order": 1,
        "controlType": "checkbox",
        "type": "checkbox"
      },
      {
        "key": "wavefront",
        "label": "Wavefront",
        "required": false,
        "order": 1,
        "controlType": "checkbox",
        "type": "checkbox"
      }
      ],
      "questions": [{
        "question": "How to upgrade license keys in My VMware (2006974)",
        "controlType": "label",
        "answer": "is simply dummy text of the printing and typesetting industry. Lorem Ipsum has been the industry's standard dummy text ever since the 1500s, when an unknown printer took a galley of type and scrambled it to make a type specimen book. It has survived not only five centuries, but also the leap into electronic typesetting, remaining essentially unchanged. It was popularised in the 1960s with the release of Letraset sheets containing Lorem Ipsum passages, and more recently with desktop publishing software like Aldus PageMaker including versions of Lorem Ipsum."
      },
      {
        "question": "How to downgrade license keys in My VMware (2006974)",
        "controlType": "label",
        "answer": "is simply dummy text of the printing and typesetting industry. Lorem Ipsum has been the industry's standard dummy text ever since the 1500s, when an unknown printer took a galley of type and scrambled it to make a type specimen book. It has survived not only five centuries, but also the leap into electronic typesetting, remaining essentially unchanged. It was popularised in the 1960s with the release of Letraset sheets containing Lorem Ipsum passages, and more recently with desktop publishing software like Aldus PageMaker including versions of Lorem Ipsum."
      },
      {
        "question": "How to move license keys in My VMware (2006974)",
        "controlType": "label",
        "answer": "is simply dummy text of the printing and typesetting industry. Lorem Ipsum has been the industry's standard dummy text ever since the 1500s, when an unknown printer took a galley of type and scrambled it to make a type specimen book. It has survived not only five centuries, but also the leap into electronic typesetting, remaining essentially unchanged. It was popularised in the 1960s with the release of Letraset sheets containing Lorem Ipsum passages, and more recently with desktop publishing software like Aldus PageMaker including versions of Lorem Ipsum."
      },
      {
        "question": "How to divide license keys in My VMware (2006974)",
        "controlType": "label",
        "answer": "is simply dummy text of the printing and typesetting industry. Lorem Ipsum has been the industry's standard dummy text ever since the 1500s, when an unknown printer took a galley of type and scrambled it to make a type specimen book. It has survived not only five centuries, but also the leap into electronic typesetting, remaining essentially unchanged. It was popularised in the 1960s with the release of Letraset sheets containing Lorem Ipsum passages, and more recently with desktop publishing software like Aldus PageMaker including versions of Lorem Ipsum."
      },
      {
        "question": "How to view license keys in My VMware (2006974)",
        "controlType": "label",
        "answer": "is simply dummy text of the printing and typesetting industry. Lorem Ipsum has been the industry's standard dummy text ever since the 1500s, when an unknown printer took a galley of type and scrambled it to make a type specimen book. It has survived not only five centuries, but also the leap into electronic typesetting, remaining essentially unchanged. It was popularised in the 1960s with the release of Letraset sheets containing Lorem Ipsum passages, and more recently with desktop publishing software like Aldus PageMaker including versions of Lorem Ipsum."
      },
      {
        "question": "How to use license keys in My VMware (2006974)",
        "controlType": "label",
        "answer": "is simply dummy text of the printing and typesetting industry. Lorem Ipsum has been the industry's standard dummy text ever since the 1500s, when an unknown printer took a galley of type and scrambled it to make a type specimen book. It has survived not only five centuries, but also the leap into electronic typesetting, remaining essentially unchanged. It was popularised in the 1960s with the release of Letraset sheets containing Lorem Ipsum passages, and more recently with desktop publishing software like Aldus PageMaker including versions of Lorem Ipsum."
      }
      ]
    }